{ "name": "Internet speed meter",
  "description": "Simple and minimal internet speed meter for gnome shell.",
  "uuid": "Internet-Speed-Meter@juerware",
  "url": "https://gitlab.com/juerware/Internet-Speed-Meter",
  "version": 1.2,
  "shell-version": [  "3.20",
                      "3.22",
                      "3.24",
                      "3.26",
                      "3.28",
                      "3.30" ]
}
